delay_core/delay_core.vcd
$date
	Thu Jan  9 14:45:52 2025
$end
$version
	Icarus Verilog
$end
$timescale
	1ns
$end
$scope module delay_core_tb $end
$var wire 1 ! syn_dac $end
$var wire 1 " sdo_ram $end
$var wire 1 # sdo_dac $end
$var wire 1 $ sck_ram $end
$var wire 1 % sck_dac $end
$var wire 1 & sck_adc $end
$var wire 1 ' css_ram $end
$var wire 1 ( cnv_adc $end
$var parameter 32 ) ADC_CS_LEN $end
$var parameter 32 * ADC_NSCK $end
$var parameter 32 + DAC_CS_LEN $end
$var parameter 32 , DAC_NSCK $end
$var parameter 32 - RAM_CS_LEN $end
$var parameter 24 . RAM_END_ADDR $end
$var parameter 32 / RAM_NSCK $end
$var parameter 24 0 R_PTR_START_ADDR $end
$var parameter 24 1 W_PTR_START_ADDR $end
$var reg 1 2 clk $end
$var reg 1 3 nrst $end
$var reg 1 4 sdi_adc $end
$var reg 1 5 sdi_ram $end
$var reg 1 6 step $end
$scope module dut $end
$var wire 1 2 clk $end
$var wire 1 7 cs_en_ram $end
$var wire 1 3 nrst $end
$var wire 1 4 sdi_adc $end
$var wire 1 5 sdi_ram $end
$var wire 1 6 step $end
$var wire 16 8 tx_adc [15:0] $end
$var wire 24 9 tx_dac [23:0] $end
$var wire 1 ! syn_dac $end
$var wire 1 : spi_done_ram $end
$var wire 1 ; spi_done_dac $end
$var wire 1 < spi_done_adc $end
$var wire 1 " sdo_ram $end
$var wire 1 # sdo_dac $end
$var wire 1 = sdo_adc $end
$var wire 1 $ sck_ram $end
$var wire 1 % sck_dac $end
$var wire 1 & sck_adc $end
$var wire 48 > rx_ram [47:0] $end
$var wire 24 ? rx_dac [23:0] $end
$var wire 16 @ rx_adc [15:0] $end
$var wire 1 ' css_ram $end
$var wire 1 A cs_en_dac $end
$var wire 1 B cs_en_adc $end
$var wire 1 C cs_done_ram $end
$var wire 1 D cs_done_dac $end
$var wire 1 E cs_done_adc $end
$var wire 1 ( cnv_adc $end
$var parameter 32 F ADC_CS_LEN $end
$var parameter 32 G ADC_NSCK $end
$var parameter 32 H DAC_CS_LEN $end
$var parameter 32 I DAC_NSCK $end
$var parameter 32 J RAM_CS_LEN $end
$var parameter 24 K RAM_END_ADDR $end
$var parameter 32 L RAM_NSCK $end
$var parameter 24 M R_PTR_START_ADDR $end
$var parameter 24 N W_PTR_START_ADDR $end
$var reg 4 O nextstate [3:0] $end
$var reg 24 P ram_r_ptr [23:0] $end
$var reg 24 Q ram_w_ptr [23:0] $end
$var reg 1 R sdi_dac $end
$var reg 4 S state [3:0] $end
$var reg 48 T tx_ram [47:0] $end
$scope module cs_gen_adc $end
$var wire 1 2 clk $end
$var wire 1 U cnt_nrst $end
$var wire 1 B en $end
$var wire 1 3 nrst $end
$var wire 1 V en_pos_edge $end
$var wire 1 E done $end
$var wire 1 ( cs $end
$var wire 7 W cnt [6:0] $end
$var parameter 32 X CNT_WIDTH $end
$var parameter 32 Y THRESHOLD $end
$var reg 2 Z nextstate [1:0] $end
$var reg 2 [ state [1:0] $end
$scope module cntr $end
$var wire 1 2 clk $end
$var wire 1 \ en $end
$var wire 1 U nrst $end
$var parameter 32 ] N $end
$var reg 7 ^ cnt [6:0] $end
$upscope $end
$scope module ped $end
$var wire 1 2 clk $end
$var wire 1 B d $end
$var wire 1 3 nrst $end
$var wire 1 _ pol $end
$var reg 1 ` d_dly $end
$var reg 1 V e $end
$upscope $end
$upscope $end
$scope module cs_gen_dac $end
$var wire 1 2 clk $end
$var wire 1 a cnt_nrst $end
$var wire 1 A en $end
$var wire 1 3 nrst $end
$var wire 1 b en_pos_edge $end
$var wire 1 D done $end
$var wire 1 ! cs $end
$var wire 4 c cnt [3:0] $end
$var parameter 32 d CNT_WIDTH $end
$var parameter 32 e THRESHOLD $end
$var reg 2 f nextstate [1:0] $end
$var reg 2 g state [1:0] $end
$scope module cntr $end
$var wire 1 2 clk $end
$var wire 1 h en $end
$var wire 1 a nrst $end
$var parameter 32 i N $end
$var reg 4 j cnt [3:0] $end
$upscope $end
$scope module ped $end
$var wire 1 2 clk $end
$var wire 1 A d $end
$var wire 1 3 nrst $end
$var wire 1 k pol $end
$var reg 1 l d_dly $end
$var reg 1 b e $end
$upscope $end
$upscope $end
$scope module cs_gen_ram $end
$var wire 1 2 clk $end
$var wire 1 m cnt_nrst $end
$var wire 1 7 en $end
$var wire 1 3 nrst $end
$var wire 1 n en_pos_edge $end
$var wire 1 C done $end
$var wire 1 ' cs $end
$var wire 4 o cnt [3:0] $end
$var parameter 32 p CNT_WIDTH $end
$var parameter 32 q THRESHOLD $end
$var reg 2 r nextstate [1:0] $end
$var reg 2 s state [1:0] $end
$scope module cntr $end
$var wire 1 2 clk $end
$var wire 1 t en $end
$var wire 1 m nrst $end
$var parameter 32 u N $end
$var reg 4 v cnt [3:0] $end
$upscope $end
$scope module ped $end
$var wire 1 2 clk $end
$var wire 1 7 d $end
$var wire 1 3 nrst $end
$var wire 1 w pol $end
$var reg 1 x d_dly $end
$var reg 1 n e $end
$upscope $end
$upscope $end
$scope module spi_con_adc $end
$var wire 1 2 clk $end
$var wire 1 ( cs $end
$var wire 1 3 nrst $end
$var wire 1 y rx_en $end
$var wire 1 & sck $end
$var wire 1 z sck_en $end
$var wire 1 4 sdi $end
$var wire 16 { tx_data [15:0] $end
$var wire 1 = sdo $end
$var wire 1 < done $end
$var wire 1 | cs_nedge $end
$var wire 6 } cnt [5:0] $end
$var parameter 32 ~ CNT_WIDTH $end
$var parameter 32 !" NSCK $end
$var parameter 32 "" RX_WIDTH $end
$var parameter 32 #" TX_WIDTH $end
$var reg 3 $" nextstate [2:0] $end
$var reg 16 %" rx_buffer [15:0] $end
$var reg 16 &" rx_data [15:0] $end
$var reg 3 '" state [2:0] $end
$var reg 16 (" tx_buffer [15:0] $end
$scope module cntr $end
$var wire 1 2 clk $end
$var wire 1 )" en $end
$var wire 1 z nrst $end
$var parameter 32 *" N $end
$var reg 6 +" cnt [5:0] $end
$upscope $end
$scope module ned1 $end
$var wire 1 2 clk $end
$var wire 1 ( d $end
$var wire 1 3 nrst $end
$var wire 1 ," pol $end
$var reg 1 -" d_dly $end
$var reg 1 | e $end
$upscope $end
$upscope $end
$scope module spi_con_dac $end
$var wire 1 2 clk $end
$var wire 1 ! cs $end
$var wire 1 3 nrst $end
$var wire 1 ." rx_en $end
$var wire 1 % sck $end
$var wire 1 /" sck_en $end
$var wire 1 R sdi $end
$var wire 24 0" tx_data [23:0] $end
$var wire 1 # sdo $end
$var wire 1 ; done $end
$var wire 1 1" cs_nedge $end
$var wire 6 2" cnt [5:0] $end
$var parameter 32 3" CNT_WIDTH $end
$var parameter 32 4" NSCK $end
$var parameter 32 5" RX_WIDTH $end
$var parameter 32 6" TX_WIDTH $end
$var reg 3 7" nextstate [2:0] $end
$var reg 24 8" rx_buffer [23:0] $end
$var reg 24 9" rx_data [23:0] $end
$var reg 3 :" state [2:0] $end
$var reg 24 ;" tx_buffer [23:0] $end
$scope module cntr $end
$var wire 1 2 clk $end
$var wire 1 <" en $end
$var wire 1 /" nrst $end
$var parameter 32 =" N $end
$var reg 6 >" cnt [5:0] $end
$upscope $end
$scope module ned1 $end
$var wire 1 2 clk $end
$var wire 1 ! d $end
$var wire 1 3 nrst $end
$var wire 1 ?" pol $end
$var reg 1 @" d_dly $end
$var reg 1 1" e $end
$upscope $end
$upscope $end
$scope module spi_con_ram $end
$var wire 1 2 clk $end
$var wire 1 ' cs $end
$var wire 1 3 nrst $end
$var wire 1 A" rx_en $end
$var wire 1 $ sck $end
$var wire 1 B" sck_en $end
$var wire 1 5 sdi $end
$var wire 48 C" tx_data [47:0] $end
$var wire 1 " sdo $end
$var wire 1 : done $end
$var wire 1 D" cs_nedge $end
$var wire 6 E" cnt [5:0] $end
$var parameter 32 F" CNT_WIDTH $end
$var parameter 32 G" NSCK $end
$var parameter 32 H" RX_WIDTH $end
$var parameter 32 I" TX_WIDTH $end
$var reg 3 J" nextstate [2:0] $end
$var reg 48 K" rx_buffer [47:0] $end
$var reg 48 L" rx_data [47:0] $end
$var reg 3 M" state [2:0] $end
$var reg 48 N" tx_buffer [47:0] $end
$scope module cntr $end
$var wire 1 2 clk $end
$var wire 1 O" en $end
$var wire 1 B" nrst $end
$var parameter 32 P" N $end
$var reg 6 Q" cnt [5:0] $end
$upscope $end
$scope module ned1 $end
$var wire 1 2 clk $end
$var wire 1 ' d $end
$var wire 1 3 nrst $end
$var wire 1 R" pol $end
$var reg 1 S" d_dly $end
$var reg 1 D" e $end
$upscope $end
$upscope $end
$upscope $end
$upscope $end
$enddefinitions $end
$comment Show the parameter values. $end
$dumpall
b110 P"
b110000 I"
b110000 H"
b110000 G"
b110 F"
b110 ="
b11000 6"
b11000 5"
b11000 4"
b110 3"
b110 *"
b10000 #"
b10000 ""
b10000 !"
b110 ~
b100 u
b10 q
b100 p
b100 i
b10 e
b100 d
b111 ]
b1000010 Y
b111 X
b0 N
b10000000000011100 M
b110000 L
b11111111111111111 K
b10 J
b11000 I
b10 H
b10000 G
b1000010 F
b0 1
b10000000000011100 0
b110000 /
b11111111111111111 .
b10 -
b11000 ,
b10 +
b10000 *
b1000010 )
$end
#0
$dumpvars
xS"
0R"
bx Q"
1O"
bx N"
bx M"
bx L"
bx K"
b0 J"
bx E"
xD"
b0 C"
xB"
xA"
x@"
0?"
bx >"
1<"
bx ;"
bx :"
bx 9"
bx 8"
b0 7"
bx 2"
x1"
b0xxxxxxxxxxxxxxxx 0"
x/"
x."
x-"
0,"
bx +"
1)"
bx ("
bx '"
bx &"
bx %"
b0 $"
bx }
x|
b0 {
xz
xy
xx
1w
bx v
1t
bx s
b0 r
bx o
xn
xm
xl
1k
bx j
1h
bx g
b0 f
bx c
xb
xa
x`
1_
bx ^
1\
bx [
b0 Z
bx W
xV
xU
b0 T
bx S
xR
bx Q
bx P
b0 O
xE
xD
xC
xB
xA
bx @
bx ?
bx >
x=
x<
x;
x:
b0xxxxxxxxxxxxxxxx 9
b0 8
x7
06
15
14
03
02
x(
x'
0&
0%
0$
x#
x"
x!
$end
#25
0U
0|
0=
0y
0z
0a
01"
0#
0."
0/"
0n
0m
0D"
b0 9
b0 0"
0"
0A"
0B"
0V
0b
07
0`
0(
1E
b0 [
0-"
b0 @
b0 &"
b0 %"
b0 ("
1<
b0 '"
0l
0!
1D
b0 g
0@"
b0 ?
b0 9"
b0 8"
b0 ;"
1;
b0 :"
0x
0'
1C
b0 s
0S"
b0 >
b0 L"
b0 K"
b0 N"
1:
b0 M"
b10000000000011100 P
b0 Q
0B
0A
b0 S
0&
0%
0$
12
#50
b1 O
02
16
13
#75
b1 r
b1 Z
1n
b10 O
1V
17
1B
b1 S
b10000000000011110 P
b10 Q
b0 E"
b0 Q"
b0 o
b0 v
b0 2"
b0 >"
b0 c
b0 j
b0 }
b0 +"
b0 W
b0 ^
12
#100
02
06
#125
1U
0n
1m
b100000000000000000000000100000000000000000 T
b100000000000000000000000100000000000000000 C"
0V
07
1`
1(
0E
b1 [
1x
1'
0C
b1 s
0B
b10 S
12
#150
02
#175
b100000000000000000000000100000000000000000 N"
1S"
0x
b1 o
b1 v
1-"
0`
b1 W
b1 ^
12
#200
02
#225
b0 r
b10 W
b10 ^
b10 o
b10 v
12
#250
02
#275
b1 J"
0m
1D"
0'
1C
b0 s
b11 o
b11 v
b11 W
b11 ^
12
#300
02
#325
0D"
b10 J"
1A"
b100 W
b100 ^
b0 o
b0 v
0S"
0:
b1 M"
12
#350
02
#375
1$
1B"
b10 M"
b1 K"
b101 W
b101 ^
12
#400
b1000000000000000000000001000000000000000000 N"
0$
02
#425
b110 W
b110 ^
b1 E"
b1 Q"
b11 K"
1$
12
#450
b10000000000000000000000010000000000000000000 N"
0$
02
#475
b111 K"
b10 E"
b10 Q"
b111 W
b111 ^
1$
12
#500
b100000000000000000000000100000000000000000000 N"
0$
02
#525
b1000 W
b1000 ^
b11 E"
b11 Q"
b1111 K"
1$
12
#550
b1000000000000000000000001000000000000000000000 N"
0$
02
#575
b11111 K"
b100 E"
b100 Q"
b1001 W
b1001 ^
1$
12
#600
b10000000000000000000000010000000000000000000000 N"
0$
02
#625
b1010 W
b1010 ^
b101 E"
b101 Q"
b111111 K"
1$
12
#650
1"
b100000000000000000000000100000000000000000000000 N"
0$
02
#675
b1111111 K"
b110 E"
b110 Q"
b1011 W
b1011 ^
1$
12
#700
0"
b1000000000000000000000000 N"
0$
02
#725
b1100 W
b1100 ^
b111 E"
b111 Q"
b11111111 K"
1$
12
#750
b10000000000000000000000000 N"
0$
02
#775
b111111111 K"
b1000 E"
b1000 Q"
b1101 W
b1101 ^
1$
12
#800
b100000000000000000000000000 N"
0$
02
#825
b1110 W
b1110 ^
b1001 E"
b1001 Q"
b1111111111 K"
1$
12
#850
b1000000000000000000000000000 N"
0$
02
#875
b11111111111 K"
b1010 E"
b1010 Q"
b1111 W
b1111 ^
1$
12
#900
b10000000000000000000000000000 N"
0$
02
#925
b10000 W
b10000 ^
b1011 E"
b1011 Q"
b111111111111 K"
1$
12
#950
b100000000000000000000000000000 N"
0$
02
#975
b1111111111111 K"
b1100 E"
b1100 Q"
b10001 W
b10001 ^
1$
12
#1000
b1000000000000000000000000000000 N"
0$
02
#1025
b10010 W
b10010 ^
b1101 E"
b1101 Q"
b11111111111111 K"
1$
12
#1050
b10000000000000000000000000000000 N"
0$
02
#1075
b111111111111111 K"
b1110 E"
b1110 Q"
b10011 W
b10011 ^
1$
12
#1100
b100000000000000000000000000000000 N"
0$
02
#1125
b10100 W
b10100 ^
b1111 E"
b1111 Q"
b1111111111111111 K"
1$
12
#1150
b1000000000000000000000000000000000 N"
0$
02
#1175
b11111111111111111 K"
b10000 E"
b10000 Q"
b10101 W
b10101 ^
1$
12
#1200
b10000000000000000000000000000000000 N"
0$
02
#1225
b10110 W
b10110 ^
b10001 E"
b10001 Q"
b111111111111111111 K"
1$
12
#1250
b100000000000000000000000000000000000 N"
0$
02
#1275
b1111111111111111111 K"
b10010 E"
b10010 Q"
b10111 W
b10111 ^
1$
12
#1300
b1000000000000000000000000000000000000 N"
0$
02
#1325
b11000 W
b11000 ^
b10011 E"
b10011 Q"
b11111111111111111111 K"
1$
12
#1350
b10000000000000000000000000000000000000 N"
0$
02
#1375
b111111111111111111111 K"
b10100 E"
b10100 Q"
b11001 W
b11001 ^
1$
12
#1400
b100000000000000000000000000000000000000 N"
0$
02
#1425
b11010 W
b11010 ^
b10101 E"
b10101 Q"
b1111111111111111111111 K"
1$
12
#1450
b1000000000000000000000000000000000000000 N"
0$
02
#1475
b11111111111111111111111 K"
b10110 E"
b10110 Q"
b11011 W
b11011 ^
1$
12
#1500
b10000000000000000000000000000000000000000 N"
0$
02
#1525
b11100 W
b11100 ^
b10111 E"
b10111 Q"
b111111111111111111111111 K"
1$
12
#1550
b100000000000000000000000000000000000000000 N"
0$
02
#1575
b1111111111111111111111111 K"
b11000 E"
b11000 Q"
b11101 W
b11101 ^
1$
12
#1600
b1000000000000000000000000000000000000000000 N"
0$
02
#1625
b11110 W
b11110 ^
b11001 E"
b11001 Q"
b11111111111111111111111111 K"
1$
12
#1650
b10000000000000000000000000000000000000000000 N"
0$
02
#1675
b111111111111111111111111111 K"
b11010 E"
b11010 Q"
b11111 W
b11111 ^
1$
12
#1700
b100000000000000000000000000000000000000000000 N"
0$
02
#1725
b100000 W
b100000 ^
b11011 E"
b11011 Q"
b1111111111111111111111111111 K"
1$
12
#1750
b1000000000000000000000000000000000000000000000 N"
0$
02
#1775
b11111111111111111111111111111 K"
b11100 E"
b11100 Q"
b100001 W
b100001 ^
1$
12
#1800
b10000000000000000000000000000000000000000000000 N"
0$
02
#1825
b100010 W
b100010 ^
b11101 E"
b11101 Q"
b111111111111111111111111111111 K"
1$
12
#1850
1"
b100000000000000000000000000000000000000000000000 N"
0$
02
#1875
b1111111111111111111111111111111 K"
b11110 E"
b11110 Q"
b100011 W
b100011 ^
1$
12
#1900
0"
b0 N"
0$
02
#1925
b100100 W
b100100 ^
b11111 E"
b11111 Q"
b11111111111111111111111111111111 K"
1$
12
#1950
0$
02
#1975
b111111111111111111111111111111111 K"
b100000 E"
b100000 Q"
b100101 W
b100101 ^
1$
12
#2000
0$
02
#2025
b100110 W
b100110 ^
b100001 E"
b100001 Q"
b1111111111111111111111111111111111 K"
1$
12
#2050
0$
02
#2075
b11111111111111111111111111111111111 K"
b100010 E"
b100010 Q"
b100111 W
b100111 ^
1$
12
#2100
0$
02
#2125
b101000 W
b101000 ^
b100011 E"
b100011 Q"
b111111111111111111111111111111111111 K"
1$
12
#2150
0$
02
#2175
b1111111111111111111111111111111111111 K"
b100100 E"
b100100 Q"
b101001 W
b101001 ^
1$
12
#2200
0$
02
#2225
b101010 W
b101010 ^
b100101 E"
b100101 Q"
b11111111111111111111111111111111111111 K"
1$
12
#2250
0$
02
#2275
b111111111111111111111111111111111111111 K"
b100110 E"
b100110 Q"
b101011 W
b101011 ^
1$
12
#2300
0$
02
#2325
b101100 W
b101100 ^
b100111 E"
b100111 Q"
b1111111111111111111111111111111111111111 K"
1$
12
#2350
0$
02
#2375
b11111111111111111111111111111111111111111 K"
b101000 E"
b101000 Q"
b101101 W
b101101 ^
1$
12
#2400
0$
02
#2425
b101110 W
b101110 ^
b101001 E"
b101001 Q"
b111111111111111111111111111111111111111111 K"
1$
12
#2450
0$
02
#2475
b1111111111111111111111111111111111111111111 K"
b101010 E"
b101010 Q"
b101111 W
b101111 ^
1$
12
#2500
0$
02
#2525
b110000 W
b110000 ^
b101011 E"
b101011 Q"
b11111111111111111111111111111111111111111111 K"
1$
12
#2550
0$
02
#2575
b111111111111111111111111111111111111111111111 K"
b101100 E"
b101100 Q"
b110001 W
b110001 ^
1$
12
#2600
0$
02
#2625
b110010 W
b110010 ^
b101101 E"
b101101 Q"
b1111111111111111111111111111111111111111111111 K"
1$
12
#2650
0$
02
#2675
b11 J"
b11111111111111111111111111111111111111111111111 K"
b101110 E"
b101110 Q"
b110011 W
b110011 ^
1$
12
#2700
0$
02
#2725
b0 J"
0A"
b110100 W
b110100 ^
b101111 E"
b101111 Q"
b111111111111111111111111111111111111111111111111 K"
b11 M"
1$
12
#2750
0$
02
#2775
0B"
b1111111111111111 9
b1111111111111111 0"
1:
b0 M"
b111111111111111111111111111111111111111111111111 >
b111111111111111111111111111111111111111111111111 L"
b100000000000000000000000100000000000000000 N"
b110000 E"
b110000 Q"
b110101 W
b110101 ^
0$
12
#2800
02
#2825
b110110 W
b110110 ^
b1111111111111111 ;"
b0 E"
b0 Q"
12
#2850
02
#2875
b110111 W
b110111 ^
12
#2900
02
#2925
b111000 W
b111000 ^
12
#2950
02
#2975
b111001 W
b111001 ^
12
#3000
02
#3025
b111010 W
b111010 ^
12
#3050
02
#3075
b111011 W
b111011 ^
12
#3100
02
#3125
b111100 W
b111100 ^
12
#3150
02
#3175
b111101 W
b111101 ^
12
#3200
02
#3225
b111110 W
b111110 ^
12
#3250
02
#3275
b111111 W
b111111 ^
12
#3300
02
#3325
b1000000 W
b1000000 ^
12
#3350
02
#3375
b1000001 W
b1000001 ^
12
#3400
02
#3425
b0 Z
b1000010 W
b1000010 ^
12
#3450
02
#3475
b1 $"
0U
1|
b11 O
0(
1E
b0 [
b1000011 W
b1000011 ^
12
#3500
02
#3525
0|
b10 $"
1y
b0 W
b0 ^
0-"
0<
b1 '"
b11 S
12
#3550
02
#3575
1&
1z
b10 '"
b1 %"
12
#3600
0&
02
#3625
b1 }
b1 +"
b11 %"
1&
12
#3650
0&
02
#3675
b111 %"
b10 }
b10 +"
1&
12
#3700
0&
02
#3725
b11 }
b11 +"
b1111 %"
1&
12
#3750
0&
02
#3775
b11111 %"
b100 }
b100 +"
1&
12
#3800
0&
02
#3825
b101 }
b101 +"
b111111 %"
1&
12
#3850
0&
02
#3875
b1111111 %"
b110 }
b110 +"
1&
12
#3900
0&
02
#3925
b111 }
b111 +"
b11111111 %"
1&
12
#3950
0&
02
#3975
b111111111 %"
b1000 }
b1000 +"
1&
12
#4000
0&
02
#4025
b1001 }
b1001 +"
b1111111111 %"
1&
12
#4050
0&
02
#4075
b11111111111 %"
b1010 }
b1010 +"
1&
12
#4100
0&
02
#4125
b1011 }
b1011 +"
b111111111111 %"
1&
12
#4150
0&
02
#4175
b1111111111111 %"
b1100 }
b1100 +"
1&
12
#4200
0&
02
#4225
b1101 }
b1101 +"
b11111111111111 %"
1&
12
#4250
0&
02
#4275
b11 $"
b111111111111111 %"
b1110 }
b1110 +"
1&
12
#4300
0&
02
#4325
b0 $"
0y
b1111 }
b1111 +"
b1111111111111111 %"
b11 '"
1&
12
#4350
0&
02
#4375
0z
b100 O
b100000000000000000000000101111111111111111 T
b100000000000000000000000101111111111111111 C"
1<
b0 '"
b1111111111111111 @
b1111111111111111 &"
b10000 }
b10000 +"
0&
12
#4400
02
#4425
b1 r
b1 f
1n
b0 T
b0 C"
b101 O
1b
17
b0 }
b0 +"
b100000000000000000000000101111111111111111 N"
1A
b100 S
12
#4450
02
#4475
b110000000100000000000111100000000000000000 T
b110000000100000000000111100000000000000000 C"
07
1m
0n
1a
0b
0A
b101 S
b0 N"
1'
0C
b1 s
1x
1!
0D
b1 g
1l
12
#4500
02
#4525
b1 c
b1 j
0l
1@"
b1 o
b1 v
0x
1S"
b110000000100000000000111100000000000000000 N"
12
#4550
02
#4575
b0 r
b0 f
b10 o
b10 v
b10 c
b10 j
12
#4600
02
#4625
b1 7"
b1 J"
0a
11"
0m
1D"
b110 O
b11 c
b11 j
0!
1D
b0 g
b11 o
b11 v
0'
1C
b0 s
12
#4650
02
#4675
b10 J"
1A"
0D"
b10 7"
1."
01"
b110 S
0:
b1 M"
0S"
b0 o
b0 v
0;
b1 :"
0@"
b0 c
b0 j
12
#4700
02
#4725
1%
1$
1/"
1B"
b0x 8"
b10 :"
b10 M"
12
#4750
b1100000001000000000001111000000000000000000 N"
b11111111111111110 ;"
0%
0$
02
#4775
b1 E"
b1 Q"
b0xx 8"
b1 2"
b1 >"
1%
1$
12
#4800
b111111111111111100 ;"
b11000000010000000000011110000000000000000000 N"
0%
0$
02
#4825
b10 2"
b10 >"
b0xxx 8"
b10 E"
b10 Q"
1%
1$
12
#4850
b110000000100000000000111100000000000000000000 N"
b1111111111111111000 ;"
0%
0$
02
#4875
b11 E"
b11 Q"
b0xxxx 8"
b11 2"
b11 >"
1%
1$
12
#4900
b11111111111111110000 ;"
b1100000001000000000001111000000000000000000000 N"
0%
0$
02
#4925
b100 2"
b100 >"
b0xxxxx 8"
b100 E"
b100 Q"
1%
1$
12
#4950
b11000000010000000000011110000000000000000000000 N"
b111111111111111100000 ;"
0%
0$
02
#4975
b101 E"
b101 Q"
b0xxxxxx 8"
b101 2"
b101 >"
1%
1$
12
#5000
1"
b1111111111111111000000 ;"
b110000000100000000000111100000000000000000000000 N"
0%
0$
02
#5025
b110 2"
b110 >"
b0xxxxxxx 8"
b110 E"
b110 Q"
1%
1$
12
#5050
b100000001000000000001111000000000000000000000000 N"
b11111111111111110000000 ;"
0%
0$
02
#5075
b111 E"
b111 Q"
b0xxxxxxxx 8"
b111 2"
b111 >"
1%
1$
12
#5100
1#
0"
b111111111111111100000000 ;"
b10000000000011110000000000000000000000000 N"
0%
0$
02
#5125
b1000 2"
b1000 >"
b0xxxxxxxxx 8"
b1000 E"
b1000 Q"
1%
1$
12
#5150
b100000000000111100000000000000000000000000 N"
b111111111111111000000000 ;"
0%
0$
02
#5175
b1001 E"
b1001 Q"
b0xxxxxxxxxx 8"
b1001 2"
b1001 >"
1%
1$
12
#5200
b111111111111110000000000 ;"
b1000000000001111000000000000000000000000000 N"
0%
0$
02
#5225
b1010 2"
b1010 >"
b0xxxxxxxxxxx 8"
b1010 E"
b1010 Q"
1%
1$
12
#5250
b10000000000011110000000000000000000000000000 N"
b111111111111100000000000 ;"
0%
0$
02
#5275
b1011 E"
b1011 Q"
b0xxxxxxxxxxxx 8"
b1011 2"
b1011 >"
1%
1$
12
#5300
b111111111111000000000000 ;"
b100000000000111100000000000000000000000000000 N"
0%
0$
02
#5325
b1100 2"
b1100 >"
b0xxxxxxxxxxxxx 8"
b1100 E"
b1100 Q"
1%
1$
12
#5350
b1000000000001111000000000000000000000000000000 N"
b111111111110000000000000 ;"
0%
0$
02
#5375
b1101 E"
b1101 Q"
b0xxxxxxxxxxxxxx 8"
b1101 2"
b1101 >"
1%
1$
12
#5400
b111111111100000000000000 ;"
b10000000000011110000000000000000000000000000000 N"
0%
0$
02
#5425
b1110 2"
b1110 >"
b0xxxxxxxxxxxxxxx 8"
b1110 E"
b1110 Q"
1%
1$
12
#5450
1"
b100000000000111100000000000000000000000000000000 N"
b111111111000000000000000 ;"
0%
0$
02
#5475
b1111 E"
b1111 Q"
b0xxxxxxxxxxxxxxxx 8"
b1111 2"
b1111 >"
1%
1$
12
#5500
0"
b111111110000000000000000 ;"
b1111000000000000000000000000000000000 N"
0%
0$
02
#5525
b10000 2"
b10000 >"
b0xxxxxxxxxxxxxxxxx 8"
b10000 E"
b10000 Q"
1%
1$
12
#5550
b11110000000000000000000000000000000000 N"
b111111100000000000000000 ;"
0%
0$
02
#5575
b10001 E"
b10001 Q"
b0xxxxxxxxxxxxxxxxxx 8"
b10001 2"
b10001 >"
1%
1$
12
#5600
b111111000000000000000000 ;"
b111100000000000000000000000000000000000 N"
0%
0$
02
#5625
b10010 2"
b10010 >"
b0xxxxxxxxxxxxxxxxxxx 8"
b10010 E"
b10010 Q"
1%
1$
12
#5650
b1111000000000000000000000000000000000000 N"
b111110000000000000000000 ;"
0%
0$
02
#5675
b10011 E"
b10011 Q"
b0xxxxxxxxxxxxxxxxxxxx 8"
b10011 2"
b10011 >"
1%
1$
12
#5700
b111100000000000000000000 ;"
b11110000000000000000000000000000000000000 N"
0%
0$
02
#5725
b10100 2"
b10100 >"
b0xxxxxxxxxxxxxxxxxxxxx 8"
b10100 E"
b10100 Q"
1%
1$
12
#5750
b111100000000000000000000000000000000000000 N"
b111000000000000000000000 ;"
0%
0$
02
#5775
b10101 E"
b10101 Q"
b0xxxxxxxxxxxxxxxxxxxxxx 8"
b10101 2"
b10101 >"
1%
1$
12
#5800
b110000000000000000000000 ;"
b1111000000000000000000000000000000000000000 N"
0%
0$
02
#5825
b11 7"
b10110 2"
b10110 >"
b0xxxxxxxxxxxxxxxxxxxxxxx 8"
b10110 E"
b10110 Q"
1%
1$
12
#5850
b11110000000000000000000000000000000000000000 N"
b100000000000000000000000 ;"
0%
0$
02
#5875
0."
b0 7"
b10111 E"
b10111 Q"
b11 :"
bx 8"
b10111 2"
b10111 >"
1%
1$
12
#5900
0#
b0 ;"
b111100000000000000000000000000000000000000000 N"
0%
0$
02
#5925
0/"
b11000 2"
b11000 >"
bx ?
bx 9"
b1111111111111111 ;"
1;
b0 :"
b11000 E"
b11000 Q"
0%
1$
12
#5950
b1111000000000000000000000000000000000000000000 N"
0$
02
#5975
b11001 E"
b11001 Q"
b0 2"
b0 >"
1$
12
#6000
b11110000000000000000000000000000000000000000000 N"
0$
02
#6025
b11010 E"
b11010 Q"
1$
12
#6050
1"
b111100000000000000000000000000000000000000000000 N"
0$
02
#6075
b11011 E"
b11011 Q"
1$
12
#6100
b111000000000000000000000000000000000000000000000 N"
0$
02
#6125
b11100 E"
b11100 Q"
1$
12
#6150
b110000000000000000000000000000000000000000000000 N"
0$
02
#6175
b11101 E"
b11101 Q"
1$
12
#6200
b100000000000000000000000000000000000000000000000 N"
0$
02
#6225
b11110 E"
b11110 Q"
1$
12
#6250
0"
b0 N"
0$
02
#6275
b11111 E"
b11111 Q"
1$
12
#6300
0$
02
#6325
b100000 E"
b100000 Q"
1$
12
#6350
0$
02
#6375
b100001 E"
b100001 Q"
1$
12
#6400
0$
02
#6425
b100010 E"
b100010 Q"
1$
12
#6450
0$
02
#6475
b100011 E"
b100011 Q"
1$
12
#6500
0$
02
#6525
b100100 E"
b100100 Q"
1$
12
#6550
0$
02
#6575
b100101 E"
b100101 Q"
1$
12
#6600
0$
02
#6625
b100110 E"
b100110 Q"
1$
12
#6650
0$
02
#6675
b100111 E"
b100111 Q"
1$
12
#6700
0$
02
#6725
b101000 E"
b101000 Q"
1$
12
#6750
0$
02
#6775
b101001 E"
b101001 Q"
1$
12
#6800
0$
02
#6825
b101010 E"
b101010 Q"
1$
12
#6850
0$
02
#6875
b101011 E"
b101011 Q"
1$
12
#6900
0$
02
#6925
b101100 E"
b101100 Q"
1$
12
#6950
0$
02
#6975
b101101 E"
b101101 Q"
1$
12
#7000
0$
02
#7025
b11 J"
b101110 E"
b101110 Q"
1$
12
#7050
0$
02
#7075
0A"
b0 J"
b11 M"
b101111 E"
b101111 Q"
1$
12
#7100
0$
02
#7125
0B"
b0 O
b110000 E"
b110000 Q"
b110000000100000000000111100000000000000000 N"
1:
b0 M"
0$
12
#7150
02
#7175
b0 T
b0 C"
b0 S
b0 E"
b0 Q"
12
#7200
02
#7225
b0 N"
12
#7250
02
#7275
12
#7300
02
#7325
12
#7350
02
#7375
12
#7400
02
#7425
12
#7450
02
#7475
12
#7500
b1 O
02
16
#7525
b1 r
b1 Z
1n
b10 O
1V
17
b10000000000100000 P
b100 Q
1B
b1 S
12
#7550
02
06
#7575
b100000000000000000000001001111111111111111 T
b100000000000000000000001001111111111111111 C"
07
1m
0n
1U
0V
0B
b10 S
1'
0C
b1 s
1x
1(
0E
b1 [
1`
12
#7600
02
#7625
b1 W
b1 ^
0`
1-"
b1 o
b1 v
0x
1S"
b100000000000000000000001001111111111111111 N"
12
#7650
02
#7675
b0 r
b10 o
b10 v
b10 W
b10 ^
12
#7700
02
